Prevention is Better than Cure—Statistical Observations of Cardiovascular Disease Data
…
From looking at preliminary statistics and visuals, relationships between the rate of major cardiovascular disease hospitalizations can be seen among different races in the United States.

## `summarise()` has grouped output by 'LocationAbbr'. You can override using the `.groups` argument.

## # A tibble: 208 x 4
## # Groups:   LocationAbbr [52]
##    LocationAbbr Break_Out           mean median
##    <chr>        <chr>              <dbl>  <dbl>
##  1 AK           Hispanic            27.7   19.6
##  2 AK           Non-Hispanic Black  22.3   16  
##  3 AK           Non-Hispanic White  14.0   12.2
##  4 AK           Other               14.1   11.5
##  5 AL           Hispanic            24.6   20  
##  6 AL           Non-Hispanic Black  34.2   32.3
##  7 AL           Non-Hispanic White  26.7   21.9
##  8 AL           Other               31.4   21.7
##  9 AR           Hispanic            17.6   10.2
## 10 AR           Non-Hispanic Black  36.5   33.3
## # … with 198 more rows

## # A tibble: 44 x 4
## # Groups:   LocationAbbr [11]
##    LocationAbbr Break_Out           mean median
##    <chr>        <chr>              <dbl>  <dbl>
##  1 AK           Hispanic            27.7   19.6
##  2 AK           Non-Hispanic Black  22.3   16  
##  3 AK           Non-Hispanic White  14.0   12.2
##  4 AK           Other               14.1   11.5
##  5 CA           Hispanic            24.2   20.2
##  6 CA           Non-Hispanic Black  34.3   30.7
##  7 CA           Non-Hispanic White  19.4   15.9
##  8 CA           Other               15.8   12.7
##  9 CO           Hispanic            19.4   17.8
## 10 CO           Non-Hispanic Black  23.2   20  
## # … with 34 more rows

## # A tibble: 64 x 4
## # Groups:   LocationAbbr [16]
##    LocationAbbr Break_Out           mean median
##    <chr>        <chr>              <dbl>  <dbl>
##  1 AL           Hispanic            24.6   20  
##  2 AL           Non-Hispanic Black  34.2   32.3
##  3 AL           Non-Hispanic White  26.7   21.9
##  4 AL           Other               31.4   21.7
##  5 AR           Hispanic            17.6   10.2
##  6 AR           Non-Hispanic Black  36.5   33.3
##  7 AR           Non-Hispanic White  25.4   20.5
##  8 AR           Other               26.3   17.6
##  9 DE           Hispanic            35.1   28.0
## 10 DE           Non-Hispanic Black  32.8   28.4
## # … with 54 more rows
…
